[gd_scene format=2]

[node name="Amount" type="PanelContainer"]
margin_right = 285.0
margin_bottom = 29.0

[node name="HBoxContainer" type="HBoxContainer" parent="."]
margin_left = 7.0
margin_top = 7.0
margin_right = 278.0
margin_bottom = 22.0

[node name="Label" type="Label" parent="HBoxContainer"]
margin_right = 251.0
margin_bottom = 14.0
size_flags_horizontal = 3
text = "Productos:"

[node name="Value" type="Label" parent="HBoxContainer"]
margin_left = 255.0
margin_right = 271.0
margin_bottom = 14.0
custom_colors/font_color = Color( 0.744, 0.9176, 0.93, 1 )
text = "14"
